"","Res","AA","Score"
"1","Q",28,0.562
"2","A",29,0.022
"3","Q",30,0.636
"4","S",31,0.602
"5","D",32,0.582
"6","C",33,0.556
"7","S",34,0.502
"8","C",35,0.536
"9","S",36,0.556
"10","T",37,0.43
"11","V",38,0.5
"12","S",39,0.456
"13","P",40,0.482
"14","G",41,0.016
"15","V",42,0.522
"16","L",43,0.522
"17","A",44,0.006
"18","G",45,0.01
"19","I",46,0.54
"20","V",47,0.506
"21","M",48,0.612
"22","G",49,0.01
"23","D",50,0.528
"24","L",51,0.54
"25","V",52,0.562
"26","L",53,0.54
"27","T",54,0.556
"28","V",55,0.534
"29","L",56,0.576
"30","I",57,0.642
"31","A",58,0.014
"32","L",59,0.542
"33","A",60,0.012
"34","V",61,0.616
"35","Y",62,0.57
"36","F",63,0.58
"37","L",64,0.582
"38","G",65,0.014
"39","R",66,0.566
"40","L",67,0.678
"41","V",68,0.55
"42","P",69,0.628
"43","R",70,0.678
"44","G",71,0.018
"45","R",72,0.672
"46","G",73,0.006
"47","A",74,0.006
"48","A",75,0.008
"49","E",76,0.59
"50","A",77,0.022
"51","A",78,0.026
"52","T",79,0.674
"53","R",80,0.77
"54","K",81,0.634
"55","Q",82,0.646
"56","R",83,0.624
"57","I",84,0.724
"58","T",85,0.504
"59","E",86,0.536
"60","T",87,0.504
"61","E",88,0.7
"62","S",89,0.67
"63","P",90,0.704
"64","Y",91,0.728
"65","Q",92,0.776
"66","E",93,0.73
"67","L",94,0.762
"68","Q",95,0.574
"69","G",96,0.04
"70","Q",97,0.646
"71","R",98,0.702
"72","S",99,0.568
"73","D",100,0.692
"74","V",101,0.764
"75","Y",102,0.872
"76","S",103,0.704
"77","D",104,0.638
"78","L",105,0.826
"79","N",106,0.656
"80","T",107,0.508
"81","Q",108,0.604
"82","R",109,0.688
"83","P",110,0.594
